{
  "images" : [
    {
      "filename" : "img_no_available.png",
      "idiom" : "universal",
      "scale" : "1x"
    },
    {
      "filename" : "Copia de img_no_available.png",
      "idiom" : "universal",
      "scale" : "2x"
    },
    {
      "filename" : "Copia de img_no_available 2.png",
      "idiom" : "universal",
      "scale" : "3x"
    }
  ],
  "info" : {
    "author" : "xcode",
    "version" : 1
  }
}
